{
    "total_results": 49,
    "total_pages": 5,
    "page": 1,
    "resources": [
      {
        "app_id": "a2eecfe3-8c4d-494f-aec5-01bfb7f9f906",
        "timestamp": 1526352175009891300,
        "scaling_type": 0,
        "status": 0,
        "old_instances": 2,
        "new_instances": 1,
        "reason": "-1 instance(s) because memoryused < 30MB for 600 seconds",
        "message": "",
        "error": ""
      },
      {
        "app_id": "a2eecfe3-8c4d-494f-aec5-01bfb7f9f906",
        "timestamp": 1526351855001354200,
        "scaling_type": 0,
        "status": 0,
        "old_instances": 3,
        "new_instances": 2,
        "reason": "-1 instance(s) because throughput < 5rps for 60 seconds",
        "message": "",
        "error": ""
      },
      {
        "app_id": "a2eecfe3-8c4d-494f-aec5-01bfb7f9f906",
        "timestamp": 1526351535008333600,
        "scaling_type": 0,
        "status": 0,
        "old_instances": 4,
        "new_instances": 3,
        "reason": "-1 instance(s) because throughput < 5rps for 60 seconds",
        "message": "",
        "error": ""
      },
      {
        "app_id": "a2eecfe3-8c4d-494f-aec5-01bfb7f9f906",
        "timestamp": 1526351215000776200,
        "scaling_type": 0,
        "status": 0,
        "old_instances": 5,
        "new_instances": 4,
        "reason": "-1 instance(s) because memoryutil < 30% for 60 seconds",
        "message": "",
        "error": ""
      },
      {
        "app_id": "a2eecfe3-8c4d-494f-aec5-01bfb7f9f906",
        "timestamp": 1526350894999105000,
        "scaling_type": 0,
        "status": 0,
        "old_instances": 6,
        "new_instances": 5,
        "reason": "-1 instance(s) because memoryutil < 30% for 60 seconds",
        "message": "",
        "error": ""
      },
      {
        "app_id": "a2eecfe3-8c4d-494f-aec5-01bfb7f9f906",
        "timestamp": 1526350575010677800,
        "scaling_type": 0,
        "status": 0,
        "old_instances": 7,
        "new_instances": 6,
        "reason": "-1 instance(s) because throughput < 5rps for 60 seconds",
        "message": "",
        "error": ""
      },
      {
        "app_id": "a2eecfe3-8c4d-494f-aec5-01bfb7f9f906",
        "timestamp": 1526350255011312600,
        "scaling_type": 0,
        "status": 0,
        "old_instances": 8,
        "new_instances": 7,
        "reason": "-1 instance(s) because throughput < 5rps for 60 seconds",
        "message": "",
        "error": ""
      },
      {
        "app_id": "a2eecfe3-8c4d-494f-aec5-01bfb7f9f906",
        "timestamp": 1526349935063451100,
        "scaling_type": 0,
        "status": 0,
        "old_instances": 9,
        "new_instances": 8,
        "reason": "-1 instance(s) because memoryutil < 30% for 60 seconds",
        "message": "",
        "error": ""
      },
      {
        "app_id": "a2eecfe3-8c4d-494f-aec5-01bfb7f9f906",
        "timestamp": 1526349615012478700,
        "scaling_type": 0,
        "status": 0,
        "old_instances": 10,
        "new_instances": 9,
        "reason": "-1 instance(s) because throughput < 5rps for 60 seconds",
        "message": "",
        "error": ""
      },
      {
        "app_id": "a2eecfe3-8c4d-494f-aec5-01bfb7f9f906",
        "timestamp": 1526349603012553500,
        "scaling_type": 1,
        "status": 0,
        "old_instances": 18,
        "new_instances": 10,
        "reason": "schedule starts with instance min 1, instance max 10 and instance min initial 5",
        "message": "limited by max instances 5",
        "error": ""
      }
    ]
  }